Error Type,Affected Part,Subparts Affected,Materials,Error Count
missing_subparts,82306N7060,"[u'PANEL_01', u'PANEL_02']",,12
duplicate_entry,66400N7000,,,25
duplicate_entry,82120N7000,,,50
duplicate_entry,81831N7000,,,1
missing_subparts,82305N7070,"[u'PANEL_01', u'PANEL_02']",,6
missing_subparts,96525N7000,"[u'ICONS_01', u'ICONS_02', u'ICONS_03']",,1
duplicate_entry,86677N7000,,,8
duplicate_entry,8811E2_A,,,6
duplicate_entry,86540N7000,,,24
missing_subparts,83306N7060,"[u'shell_0', u'METADATA']",,6
missing_subparts,84787N7100,[u'3DX_NX4_NLine_Stripe'],,24
missing_subparts,83305N7070,"[u'shell_0', u'METADATA']",,6
missing_subparts,87722N7000,[u'GEOMETRY'],,25
missing_part,83306N7040,,,12
missing_subparts,82306N7050,"[u'PANEL_01', u'PANEL_02']",,12
missing_subparts,83306N7000,"[u'shell_0', u'METADATA']",,1
missing_subparts,82306N7010,"[u'PANEL_01', u'PANEL_02']",,1
duplicate_entry,88810N7000,,,25
duplicate_entry,86675N7000,,,16
duplicate_entry,85715N7000,,,50
missing_subparts,58210N7600,"[u'Surface_3_01', u'Surface_3_02']",,25
missing_subparts,82305N7060,"[u'PANEL_01', u'PANEL_02']",,12
duplicate_entry,8811C1_GLS,,,19
missing_subparts,87721N7000,[u'GEOMETRY'],,25
missing_subparts,82305N7020,"[u'PANEL_01', u'PANEL_02']",,1
missing_subparts,82305N7100,"[u'PANEL_01', u'PANEL_02']",,6
missing_subparts,97040N7000,"[u'BODY_01', u'BODY_02']",,24
duplicate_entry,8811E2_A_e,,,6
missing_subparts,83305N7000,"[u'shell_0', u'METADATA']",,1
duplicate_entry,8811C1_GLS_e,,,19
missing_subparts,83306N7070,"[u'shell_0', u'METADATA']",,6
missing_subparts,58230N7600,"[u'Surface_3_01', u'Surface_3_02']",,25
missing_subparts,83305N7060,"[u'shell_0', u'METADATA']",,6
missing_subparts,83305N7040,"[u'shell_0', u'METADATA']",,12
duplicate_entry,85870N7000,,,1
